2018-07-14T10:47:42+00:00 INFO Khởi tạo lại ảnh cho file đính kèm ID: 341
2018-07-14T10:47:43+00:00 INFO Khởi tạo lại ảnh cho file đính kèm ID: 329
2018-07-14T10:47:43+00:00 INFO Khởi tạo lại ảnh cho file đính kèm ID: 327
2018-07-14T10:47:44+00:00 INFO Khởi tạo lại ảnh cho file đính kèm ID: 325
2018-07-14T10:47:44+00:00 INFO Khởi tạo lại ảnh cho file đính kèm ID: 322
2018-07-14T10:47:45+00:00 INFO Khởi tạo lại ảnh cho file đính kèm ID: 320
2018-07-14T10:47:45+00:00 INFO Khởi tạo lại ảnh cho file đính kèm ID: 313
2018-07-14T10:47:46+00:00 INFO Khởi tạo lại ảnh cho file đính kèm ID: 311
2018-07-14T10:47:46+00:00 INFO Khởi tạo lại ảnh cho file đính kèm ID: 296
2018-07-14T10:47:47+00:00 INFO Khởi tạo lại ảnh cho file đính kèm ID: 292
2018-07-14T10:47:48+00:00 INFO Khởi tạo lại ảnh cho file đính kèm ID: 289
2018-07-14T10:47:48+00:00 INFO Khởi tạo lại ảnh cho file đính kèm ID: 288
2018-07-14T10:47:49+00:00 INFO Khởi tạo lại ảnh cho file đính kèm ID: 285
2018-07-14T10:47:49+00:00 INFO Khởi tạo lại ảnh cho file đính kèm ID: 281
2018-07-14T10:47:50+00:00 INFO Khởi tạo lại ảnh cho file đính kèm ID: 278
2018-07-14T10:47:50+00:00 INFO Khởi tạo lại ảnh cho file đính kèm ID: 276
2018-07-14T10:47:51+00:00 INFO Khởi tạo lại ảnh cho file đính kèm ID: 274
2018-07-14T10:47:51+00:00 INFO Khởi tạo lại ảnh cho file đính kèm ID: 272
2018-07-14T10:47:52+00:00 INFO Khởi tạo lại ảnh cho file đính kèm ID: 270
2018-07-14T10:47:53+00:00 INFO Khởi tạo lại ảnh cho file đính kèm ID: 268
2018-07-14T10:47:55+00:00 INFO Khởi tạo lại ảnh cho file đính kèm ID: 261
2018-07-14T10:47:56+00:00 INFO Khởi tạo lại ảnh cho file đính kèm ID: 258
2018-07-14T10:47:56+00:00 INFO Khởi tạo lại ảnh cho file đính kèm ID: 255
2018-07-14T10:47:57+00:00 INFO Khởi tạo lại ảnh cho file đính kèm ID: 254
2018-07-14T10:47:58+00:00 INFO Khởi tạo lại ảnh cho file đính kèm ID: 247
2018-07-14T10:47:58+00:00 INFO Khởi tạo lại ảnh cho file đính kèm ID: 244
2018-07-14T10:47:59+00:00 INFO Khởi tạo lại ảnh cho file đính kèm ID: 242
2018-07-14T10:47:59+00:00 INFO Khởi tạo lại ảnh cho file đính kèm ID: 239
2018-07-14T10:48:00+00:00 INFO Khởi tạo lại ảnh cho file đính kèm ID: 236
2018-07-14T10:48:01+00:00 INFO Khởi tạo lại ảnh cho file đính kèm ID: 234
2018-07-14T10:48:01+00:00 INFO Khởi tạo lại ảnh cho file đính kèm ID: 232
2018-07-14T10:48:02+00:00 INFO Khởi tạo lại ảnh cho file đính kèm ID: 230
2018-07-14T10:48:02+00:00 INFO Khởi tạo lại ảnh cho file đính kèm ID: 226
2018-07-14T10:48:03+00:00 INFO Khởi tạo lại ảnh cho file đính kèm ID: 223
2018-07-14T10:48:03+00:00 INFO Khởi tạo lại ảnh cho file đính kèm ID: 221
2018-07-14T10:48:04+00:00 INFO Khởi tạo lại ảnh cho file đính kèm ID: 219
2018-07-14T10:48:05+00:00 INFO Khởi tạo lại ảnh cho file đính kèm ID: 217
2018-07-14T10:48:05+00:00 INFO Khởi tạo lại ảnh cho file đính kèm ID: 215
2018-07-14T10:48:06+00:00 INFO Khởi tạo lại ảnh cho file đính kèm ID: 213
2018-07-14T10:48:06+00:00 INFO Khởi tạo lại ảnh cho file đính kèm ID: 211
2018-07-14T10:48:07+00:00 INFO Khởi tạo lại ảnh cho file đính kèm ID: 207
2018-07-14T10:48:07+00:00 INFO Khởi tạo lại ảnh cho file đính kèm ID: 178
2018-07-14T10:48:08+00:00 INFO Khởi tạo lại ảnh cho file đính kèm ID: 176
2018-07-14T10:48:08+00:00 INFO Khởi tạo lại ảnh cho file đính kèm ID: 174
2018-07-14T10:48:09+00:00 INFO Khởi tạo lại ảnh cho file đính kèm ID: 172
2018-07-14T10:48:09+00:00 INFO Khởi tạo lại ảnh cho file đính kèm ID: 170
2018-07-14T10:48:10+00:00 INFO Khởi tạo lại ảnh cho file đính kèm ID: 168
2018-07-14T10:48:11+00:00 INFO Khởi tạo lại ảnh cho file đính kèm ID: 166
2018-07-14T10:48:11+00:00 INFO Khởi tạo lại ảnh cho file đính kèm ID: 164
2018-07-14T10:48:12+00:00 INFO Khởi tạo lại ảnh cho file đính kèm ID: 159
2018-07-14T10:48:13+00:00 INFO Khởi tạo lại ảnh cho file đính kèm ID: 157
2018-07-14T10:48:13+00:00 INFO Khởi tạo lại ảnh cho file đính kèm ID: 154
2018-07-14T10:48:14+00:00 INFO Khởi tạo lại ảnh cho file đính kèm ID: 151
2018-07-14T10:48:14+00:00 INFO Khởi tạo lại ảnh cho file đính kèm ID: 149
2018-07-14T10:48:15+00:00 INFO Khởi tạo lại ảnh cho file đính kèm ID: 146
2018-07-14T10:48:16+00:00 INFO Khởi tạo lại ảnh cho file đính kèm ID: 144
2018-07-14T10:48:16+00:00 INFO Khởi tạo lại ảnh cho file đính kèm ID: 142
2018-07-14T10:48:17+00:00 INFO Khởi tạo lại ảnh cho file đính kèm ID: 140
2018-07-14T10:48:18+00:00 INFO Khởi tạo lại ảnh cho file đính kèm ID: 137
2018-07-14T10:48:18+00:00 INFO Khởi tạo lại ảnh cho file đính kèm ID: 135
2018-07-14T10:48:19+00:00 INFO Khởi tạo lại ảnh cho file đính kèm ID: 107
2018-07-14T10:48:19+00:00 INFO Khởi tạo lại ảnh cho file đính kèm ID: 93
2018-07-14T10:48:20+00:00 INFO Khởi tạo lại ảnh cho file đính kèm ID: 67
2018-07-14T10:48:20+00:00 INFO Khởi tạo lại ảnh cho file đính kèm ID: 62
2018-07-14T10:48:21+00:00 INFO Khởi tạo lại ảnh cho file đính kèm ID: 61
2018-07-14T10:48:22+00:00 INFO Khởi tạo lại ảnh cho file đính kèm ID: 60
2018-07-14T10:48:22+00:00 INFO Khởi tạo lại ảnh cho file đính kèm ID: 43
2018-07-14T10:48:23+00:00 INFO Khởi tạo lại ảnh cho file đính kèm ID: 41
2018-07-14T10:48:23+00:00 INFO Khởi tạo lại ảnh cho file đính kèm ID: 30
2018-07-14T10:48:24+00:00 INFO Khởi tạo lại ảnh cho file đính kèm ID: 29
2018-07-14T10:48:24+00:00 INFO Khởi tạo lại ảnh cho file đính kèm ID: 28
2018-07-14T10:48:25+00:00 INFO Khởi tạo lại ảnh cho file đính kèm ID: 17
2018-07-14T10:48:25+00:00 INFO Khởi tạo lại ảnh sản phẩm đã hoàn tất.
